module github.com/nats-io/nats-server/v2

go 1.20

require (
	github.com/klauspost/compress v1.17.4
	github.com/minio/highwayhash v1.0.2
	github.com/nats-io/jwt/v2 v2.5.3
	github.com/nats-io/nats.go v1.31.0
	github.com/nats-io/nkeys v0.4.7
	github.com/nats-io/nuid v1.0.1
	go.uber.org/automaxprocs v1.5.3
	golang.org/x/crypto v0.17.0
	golang.org/x/sys v0.15.0
	golang.org/x/time v0.5.0
)
